{
  "current_page": 1,
  "data": [
      {
          "id": 1,
          "picture": null,
          "title": "Nostrum sunt.",
          "description": "Beatae vero aperiam rem. Cum ut harum id provident laboriosam quo. Et impedit saepe illum quaerat. Culpa omnis ut aut eius debitis.",
          "status": "active",
          "deadline": "2019-05-27",
          "client_name": "Brittany Cronin",
          "client_company": "Blick-Miller",
          "client_contact": "+15799765653",
          "client_email": "ignacio.lehner@thiel.org",
          "created_at": "2019-02-27 08:07:13",
          "updated_at": "2019-02-27 08:07:13",
          "manager": null
      },
      {
          "id": 2,
          "picture": null,
          "title": "Quo.",
          "description": "Sit rerum neque facilis illum. Laudantium odit molestiae rem excepturi quibusdam voluptatem deserunt. Voluptates alias deserunt quidem necessitatibus natus natus doloribus.",
          "status": "active",
          "deadline": "2019-05-27",
          "client_name": "Mrs. Cara Conn Jr.",
          "client_company": "Kulas, Medhurst and Cartwright",
          "client_contact": "+12974842376",
          "client_email": "hblock@predovic.com",
          "created_at": "2019-02-27 08:07:13",
          "updated_at": "2019-02-27 08:07:13",
          "manager": null
      },
      {
          "id": 3,
          "picture": null,
          "title": "Et eius.",
          "description": "Voluptatem est ea sequi necessitatibus tempore sequi voluptate. Praesentium accusantium rerum odit quis. Adipisci architecto aliquid culpa in labore consequatur. Eos quasi omnis blanditiis beatae illo.",
          "status": "active",
          "deadline": "2019-05-27",
          "client_name": "Carmen Brakus",
          "client_company": "Witting, Jast and Dietrich",
          "client_contact": "635.666.0291 x3114",
          "client_email": "gmiller@towne.com",
          "created_at": "2019-02-27 08:07:13",
          "updated_at": "2019-02-27 08:07:13",
          "manager": null
      },
      {
          "id": 4,
          "picture": null,
          "title": "Illo.",
          "description": "Vitae sit laudantium pariatur quo dolore architecto ut. Provident corporis iste atque molestias. Accusantium deserunt id aspernatur qui. Repudiandae quia nihil iure.",
          "status": "active",
          "deadline": "2019-05-27",
          "client_name": "Sherman Parker",
          "client_company": "Bins, Sauer and Schuppe",
          "client_contact": "541.260.6504",
          "client_email": "kuphal.jairo@lang.net",
          "created_at": "2019-02-27 08:07:13",
          "updated_at": "2019-02-27 08:07:13",
          "manager": null
      },
      {
          "id": 5,
          "picture": null,
          "title": "Ullam molestiae.",
          "description": "Incidunt et et labore nisi velit accusantium. Qui autem quia est iure enim neque. Omnis laborum dolores saepe a consequatur.",
          "status": "active",
          "deadline": "2019-05-27",
          "client_name": "Ms. Christine Ziemann IV",
          "client_company": "Lind, Ward and Crona",
          "client_contact": "994-940-4723 x551",
          "client_email": "boris61@cummerata.com",
          "created_at": "2019-02-27 08:07:13",
          "updated_at": "2019-02-27 08:07:13",
          "manager": null
      },
      {
          "id": 6,
          "picture": null,
          "title": "Veniam voluptatum.",
          "description": "Sit commodi sed fuga tempore fuga eaque. Possimus blanditiis quo illo ut in unde architecto. Excepturi modi commodi et adipisci quo.",
          "status": "active",
          "deadline": "2019-05-27",
          "client_name": "Vince Rempel II",
          "client_company": "Hermiston Group",
          "client_contact": "312-294-5647",
          "client_email": "jamie.labadie@kub.info",
          "created_at": "2019-02-27 08:07:13",
          "updated_at": "2019-02-27 08:07:13",
          "manager": null
      },
      {
          "id": 7,
          "picture": null,
          "title": "Earum.",
          "description": "Quibusdam eius culpa reprehenderit in quis minus quidem. Sed quia voluptas animi beatae rem nesciunt aperiam.",
          "status": "active",
          "deadline": "2019-05-27",
          "client_name": "Ms. Alivia Goodwin Sr.",
          "client_company": "Dach-Marquardt",
          "client_contact": "(759) 627-7082 x4997",
          "client_email": "camden.larson@moore.biz",
          "created_at": "2019-02-27 08:07:13",
          "updated_at": "2019-02-27 08:07:13",
          "manager": null
      },
      {
          "id": 8,
          "picture": null,
          "title": "Magnam non.",
          "description": "Accusantium architecto debitis ratione mollitia. Architecto est unde fugit vitae. Sed voluptas quaerat dolorem et eius unde et. Vitae et exercitationem placeat quo ut voluptatem et.",
          "status": "active",
          "deadline": "2019-05-27",
          "client_name": "Mr. Unique Runolfsdottir V",
          "client_company": "Rau, Reynolds and Rowe",
          "client_contact": "463.909.9866 x2555",
          "client_email": "kauer@witting.com",
          "created_at": "2019-02-27 08:07:13",
          "updated_at": "2019-02-27 08:07:13",
          "manager": null
      },
      {
          "id": 9,
          "picture": null,
          "title": "Fugiat sed.",
          "description": "Est nemo veritatis suscipit reprehenderit delectus soluta ut. Est at rerum et ut.",
          "status": "active",
          "deadline": "2019-05-27",
          "client_name": "Viola White V",
          "client_company": "Crooks, Heathcote and Jacobi",
          "client_contact": "1-923-205-7942 x93130",
          "client_email": "csipes@crona.com",
          "created_at": "2019-02-27 08:07:13",
          "updated_at": "2019-02-27 08:07:13",
          "manager": null
      },
      {
          "id": 10,
          "picture": null,
          "title": "Voluptatem.",
          "description": "Sed amet ab suscipit amet. Quo inventore in mollitia odio et fugit voluptatum. Et quos porro culpa quia eum consectetur odit. Tempore esse enim assumenda.",
          "status": "active",
          "deadline": "2019-05-27",
          "client_name": "Miss Alivia Toy V",
          "client_company": "Funk, Stokes and Frami",
          "client_contact": "269-983-3680 x51306",
          "client_email": "daniela.kilback@goyette.info",
          "created_at": "2019-02-27 08:07:13",
          "updated_at": "2019-02-27 08:07:13",
          "manager": null
      },
      {
          "id": 11,
          "picture": null,
          "title": "Aperiam.",
          "description": "Qui cupiditate sed tenetur architecto magni alias. Perferendis eum iste quae necessitatibus dolore molestiae repudiandae quasi. Hic vel voluptates distinctio quis dolorem rerum et. Reprehenderit illum omnis numquam iste et voluptatem aut. Labore harum repellendus iusto suscipit.",
          "status": "active",
          "deadline": "2019-05-27",
          "client_name": "Ms. Annabell Grant",
          "client_company": "Goldner PLC",
          "client_contact": "1-285-418-2462",
          "client_email": "roger39@pollich.com",
          "created_at": "2019-02-27 08:07:13",
          "updated_at": "2019-02-27 08:07:13",
          "manager": null
      },
      {
          "id": 12,
          "picture": null,
          "title": "Facilis sit.",
          "description": "Itaque sunt dolor quas voluptatem fuga facere. Eum sit labore natus pariatur consequuntur sapiente odio at. Omnis enim repudiandae rerum facilis velit.",
          "status": "active",
          "deadline": "2019-05-27",
          "client_name": "Dr. Dan Hoeger DDS",
          "client_company": "Koch and Sons",
          "client_contact": "+17066149949",
          "client_email": "estefania75@schuppe.com",
          "created_at": "2019-02-27 08:07:13",
          "updated_at": "2019-02-27 08:07:13",
          "manager": null
      },
      {
          "id": 13,
          "picture": null,
          "title": "Molestias molestiae.",
          "description": "Expedita quasi nihil qui a est. Et sunt corporis quis voluptatibus. Asperiores quibusdam ipsa et enim est omnis maiores facere. Iure autem consequatur qui ut ratione exercitationem aut.",
          "status": "active",
          "deadline": "2019-05-27",
          "client_name": "Oral Kunde",
          "client_company": "Connelly-Rowe",
          "client_contact": "(602) 551-7620",
          "client_email": "zackery.schiller@haley.info",
          "created_at": "2019-02-27 08:07:13",
          "updated_at": "2019-02-27 08:07:13",
          "manager": null
      },
      {
          "id": 14,
          "picture": null,
          "title": "In.",
          "description": "Consequatur nostrum voluptates accusamus autem voluptatem animi et et. Velit omnis enim ea aut doloribus. Enim earum fuga unde nulla consequatur. Aut aut numquam aut dolor id.",
          "status": "active",
          "deadline": "2019-05-27",
          "client_name": "Prof. Jeromy Bode V",
          "client_company": "Wilkinson Inc",
          "client_contact": "761.445.6606 x38555",
          "client_email": "pswaniawski@sanford.com",
          "created_at": "2019-02-27 08:07:13",
          "updated_at": "2019-02-27 08:07:13",
          "manager": null
      },
      {
          "id": 15,
          "picture": null,
          "title": "Ratione rerum.",
          "description": "Eius tenetur illo est. Expedita dolor iure et. Accusantium consequatur earum nemo minima alias illo repudiandae dolores. Qui cumque aut quia quia.",
          "status": "active",
          "deadline": "2019-05-27",
          "client_name": "Jolie Balistreri I",
          "client_company": "Reilly, Hessel and Tillman",
          "client_contact": "636.559.5918",
          "client_email": "jerdman@kertzmann.com",
          "created_at": "2019-02-27 08:07:13",
          "updated_at": "2019-02-27 08:07:13",
          "manager": null
      }
  ],
  "first_page_url": "http://127.0.0.1:8080/projects?page=1",
  "from": 1,
  "last_page": 4,
  "last_page_url": "http://127.0.0.1:8080/projects?page=4",
  "next_page_url": "http://127.0.0.1:8080/projects?page=2",
  "path": "http://127.0.0.1:8080/projects",
  "per_page": 15,
  "prev_page_url": null,
  "to": 15,
  "total": 50
}